Manholes 57
1 200 200 2.5
2 300 300 2.6
3 400 400 2.7
4 500 500 2.8
5 600 600 2.6
6 700 700 2.6
7 800 800 2.3
8 900 900 2.5
9 1000 1000 2.9
10 1100 1100 2.85
11 1200 1200 2.8
12 1300 1300 2.8
13 1400 1400 2.2
14 1500 1500 2.4
15 1600 1600 2.5
16 1700 1700 2.6
17 1800 1800 2.6
18 1900 1900 2.2
19 2000 2000 2.4
20 2100 2100 2.5
21 2200 2200 2.45
22 2300 2300 2.4
23 2400 2400 2.35
24 2500 2500 2.3
25 2600 2600 2.1
26 2700 2700 2.4
27 2800 2800 2.4
28 2900 2900 2.25
29 3000 3000 2.2
30 3100 3100 2.1
31 3200 3200 2
32 3300 3300 2
33 3400 3400 1.95
34 3500 3500 2
35 3600 3600 1.95
36 3700 3700 1.9
37 3800 3800 2.05
38 3900 3900 2.2
39 4000 4000 2.1
40 4100 4100 2
41 4200 4200 2.1
42 4300 4300 2.1
43 4400 4400 2
44 4500 4500 2
45 4600 4600 2.2
46 4700 4700 2.1
47 4800 4800 2.2
48 4900 4900 2.1
49 5000 5000 2.1
50 5100 5100 2.1
51 5200 5200 2.2
52 5300 5300 2.2
53 5400 5400 2.2
54 5500 5500 2.25
55 5600 5600 2.7
56 5700 5700 2.2
57 0 0 2.2
Sections 79
1 7 C 0.0385137 360
2 1 C 0.0331487 490
3 2 C 0.007795 300
4 3 I 0.002935 240
5 55 C 0.0094825 300
6 11 I 0.00251 230
6 55 I 0.00753 240
7 8 I 0.009405 290
7 13 C 0.0385137 350
8 5 I 0.0026025 260
8 9 C 0.01461 220
8 14 I 0.0026025 270
9 15 C 0.0247237 240
10 9 I 0.00754875 275
10 11 C 0.006255 380
10 55 I 0.00251625 310
11 17 C 0.02981 200
12 11 I 0.004455 190
13 18 C 0.0453937 300
14 19 C 0.0108975 230
15 20 C 0.0268537 180
16 10 C 0.006255 250
17 22 C 0.035475 200
18 25 C 0.075035 360
19 18 C 0.0212413 350
20 19 I 0.00283 300
20 27 C 0.0386637 260
21 16 I 0.00332 200
21 20 I 0.00332 320
21 28 C 0.0449688 260
22 21 C 0.0383288 370
22 29 I 0.01156 210
23 22 I 0.00285375 325
23 35 C 0.0140737 440
24 23 I 0.0055125 290
24 36 I 0.0018375 440
25 30 C 0.080895 280
26 19 I 0.00145875 310
26 31 I 0.00048625 260
27 32 C 0.0471637 190
28 33 C 0.0486138 230
29 34 C 0.0176 230
30 31 C 0.084675 230
31 39 C 0.193591 250
32 31 C 0.104775 250
33 32 C 0.0486138 225
33 34 I 0.006375 350
34 35 I 0.009695 320
34 37 C 0.023975 180
35 36 C 0.307671 310
36 44 C 0.320009 350
37 42 C 0.027315 150
38 39 C 0.0152725 270
39 40 I 0.00056625 270
39 46 C 0.210563 280
40 32 C 0.0014475 140
40 41 I 0.00490875 260
41 42 I 0.006075 320
41 47 C 0.00490875 300
42 43 C 0.274388 290
43 35 C 0.274388 290
43 44 I 0.000825 310
43 49 I 0.002475 280
44 50 C 0.325439 310
45 38 C 0.0124025 230
46 47 C 0.213363 280
47 48 C 0.223263 230
47 52 I 0.00166375 270
48 42 C 0.231268 300
49 50 C 0.002475 260
49 54 I 0 230
50 56 C 0.327914 300
51 45 C 0.0075425 230
52 51 C 0.0049825 180
53 52 C 0.00328875 350
54 53 C 0.00328875 350
55 2 C 0.0195287 250
56 54 I 0.00328875 280
56 57 C 0.33778 500
