Manholes 20
1 0.03435 103594.1 117364 2555.67
2 0.0618 103673.5 117348.9 2555.62
3 0.0574 103777.0 117330.9 2555.38
4 0.0339 103832.8 117324 2555.14
5 0.03435 103579.9 117309.5 2555.72
6 0.07985 103658.4 117289.9 2555.88
7 0.0776 103760.8 117264.9 2555.4
8 0.0541 103821.1 117245.7 2554.97
9 0.0346 103482.7 117237.9 2555.29
10 0.06275 103553.9 117243.1 2556.02
11 0.0889 103640.6 117220.5 2555.52
12 0.064 103743.5 117193.7 2555.63
13 0.05745 103816.4 117172.1 2555.01
14 0.0294 103470.3 117172.1 2555.87
15 0.06075 103519.27 117160.1 2555.65
16 0.07425 103618.6 117135.7 2555.66
17 0.0487 103722.4 117111.4 2555.5
18 0.06325 103808.4 117092.9 2555.24
19 0.0213 103808.4 117007.9 2555.24
20 -1.0387 103808.4 116997.9 2555.24
Sections 27
1 2
2 3
3 4
1 5
2 6
3 7
4 8
5 6
6 7
7 8
6 11
7 12
8 13
9 10
10 11
11 12
12 13
9 14
10 15
11 16
13 18
14 15
15 16
16 17
17 18
18 19
19 20