Manholes 57
1 0.005365 200 200 2.5
2 0.005825 300 300 2.6
3 0.00486 400 400 2.7
4 0.002935 500 500 2.8
5 0.00688 600 600 2.6
6 0.01004 700 700 2.6
7 0.009405 800 800 2.3
8 0.01041 900 900 2.5
9 0.002565 1000 1000 2.9
10 0.010065 1100 1100 2.85
11 0.01659 1200 1200 2.8
12 0.004455 1300 1300 2.8
13 0.00688 1400 1400 2.2
14 0.008295 1500 1500 2.4
15 0.00213 1600 1600 2.5
16 0.002935 1700 1700 2.6
17 0.005665 1800 1800 2.6
18 0.0084 1900 1900 2.2
19 0.006055 2000 2000 2.4
20 0.01132 2100 2100 2.5
21 0.01328 2200 2200 2.45
22 0.01156 2300 2300 2.4
23 0.011415 2400 2400 2.35
24 0.00735 2500 2500 2.3
25 0.00586 2600 2600 2.1
26 0.001945 2700 2700 2.4
27 0.0085 2800 2800 2.4
28 0.003645 2900 2900 2.25
29 0.00604 3000 3000 2.2
30 0.00378 3100 3100 2.1
31 0.003655 3200 3200 2
32 0.00755 3300 3300 2
33 0.006375 3400 3400 1.95
34 0.009695 3500 3500 2
35 0.009515 3600 3600 1.95
36 0.0105 3700 3700 1.9
37 0.00334 3800 3800 2.05
38 0.00287 3900 3900 2.2
39 0.002265 4000 4000 2.1
40 0.00579 4100 4100 2
41 0.006075 4200 4200 2.1
42 0.00973 4300 4300 2.1
43 0.0033 4400 4400 2
44 0.004605 4500 4500 2
45 0.00486 4600 4600 2.2
46 0.0028 4700 4700 2.1
47 0.006655 4800 4800 2.2
48 0.008005 4900 4900 2.1
49 0 5000 5000 2.1
50 0 5100 5100 2.1
51 0.00256 5200 5200 2.2
52 0.00003 5300 5300 2.2
53 0 5400 5400 2.2
54 0 5500 5500 2.25
55 0 5600 5600 2.7
56 0.013155 5700 5700 2.2
57 -0.33778 0 0 2.2
Sections 79
1 7 360
1 2 490
2 3 300
2 55 250
4 3 240
6 55 240
6 11 230
7 13 350
7 8 290
8 14 270
8 5 260
8 9 220
9 15 240
9 10 275
10 55 310
10 11 380
11 17 200
12 11 190
13 18 300
15 20 180
16 10 250
16 21 200
17 22 200
18 25 360
18 19 350
19 14 230
19 26 310
19 20 300
20 27 260
20 21 320
21 22 370
21 28 260
22 23 325
22 29 210
23 24 290
23 35 440
24 36 440
25 30 280
26 31 260
27 32 190
28 33 230
29 34 230
30 31 230
31 32 250
31 39 250
32 33 225
32 40 140
33 34 350
34 37 180
34 35 320
35 43 290
35 36 310
36 44 350
38 45 230
38 39 270
39 40 270
39 46 280
40 41 260
41 47 300
41 42 320
42 37 150
42 48 300
42 43 290
43 44 310
45 51 230
46 47 280
47 52 270
47 48 230
49 43 280
50 44 310
50 49 260
50 56 300
51 52 180
52 53 350
53 54 350
54 49 230
54 56 280
56 57 500
55 5 300
